Choropleth maps with tricolore
…
The data

library(tricolore)
library(dplyr)
#> 
#> Attaching package: 'dplyr'
#> The following objects are masked from 'package:stats':
#> 
#>     filter, lag
#> The following objects are masked from 'package:base':
#> 
#>     intersect, setdiff, setequal, union

as_tibble(euro_example)
#> # A tibble: 312 x 9
#>    id    name       ed_0to2 ed_3to4 ed_5to8  lf_pri lf_sec lf_ter geometry
#>    <chr> <chr>        <dbl>   <dbl>   <dbl>   <dbl>  <dbl>  <dbl> <list>  
#>  1 AT11  Burgenlan…   0.165   0.557   0.279 0.0442   0.268  0.682 <S3: XY>
#>  2 AT12  Niederöst…   0.147   0.551   0.302 0.0562   0.244  0.700 <S3: XY>
#>  3 AT13  Wien         0.169   0.432   0.399 0.00518  0.143  0.852 <S3: XY>
#>  4 AT21  Kärnten      0.106   0.6     0.294 0.0566   0.265  0.671 <S3: XY>
#>  5 AT22  Steiermark   0.14    0.586   0.274 0.0610   0.292  0.647 <S3: XY>
#>  6 AT31  Oberöster…   0.157   0.553   0.291 0.0623   0.331  0.606 <S3: XY>
#>  7 AT32  Salzburg     0.138   0.547   0.315 0.0415   0.249  0.704 <S3: XY>
#>  8 BE31  Prov. Bra…   0.163   0.315   0.522 0        0.148  0.842 <S3: XY>
#>  9 BE32  Prov. Hai…   0.312   0.388   0.3   0.0170   0.204  0.779 <S3: XY>
#> 10 BE33  Prov. Liè…   0.301   0.365   0.334 0.0121   0.211  0.772 <S3: XY>
#> # ... with 302 more rows
…
