European differences in educational attainment
…
European differences in educational attainment

Jonas Schöley

2018-05-23

Here I demonstrate how to use the tricolore library to color-code a choropleth map of Europe according to the regional distribution of educational attainment.

library(tricolore)
euro_education
#> # A tibble: 324 x 4
#>    id    ed0_2 ed3_4 ed5_8
#>    <chr> <dbl> <dbl> <dbl>
#>  1 AT11  0.165 0.557 0.279
#>  2 AT12  0.147 0.551 0.302
#>  3 AT13  0.169 0.432 0.399
#>  4 AT21  0.106 0.6   0.294
#>  5 AT22  0.14  0.586 0.274
#>  6 AT31  0.157 0.553 0.291
#>  7 AT32  0.138 0.547 0.315
#>  8 AT33  0.179 0.539 0.282
#>  9 AT34  0.196 0.527 0.277
#> 10 BE10  0.291 0.269 0.441
#> # ... with 314 more rows
…
It takes three steps to transform the compositional data and the geodata of Europe into a ternary color-coded map:

1. Using the Tricolore() function, color-code each composition in the euro_education data set and add the resulting vector of hex-srgb colors as a new variable to the data frame. Store the color key seperately.

# color-code the data set and generate a color-key
tric <- Tricolore(euro_education, p1 = 'ed0_2', p2 = 'ed3_4', p3 = 'ed5_8',
                  breaks = 4)
#> Warning: Ignoring unknown aesthetics: z

tric contains both a vector of color-coded compositions (tric$hexsrgb) and the corresponding color key (tric$legend).

# add the vector of colors to the `euro_education` data
euro_education$rgb <- tric$hexsrgb
euro_education
#> # A tibble: 324 x 5
#>    id    ed0_2 ed3_4 ed5_8 rgb      
#>    <chr> <dbl> <dbl> <dbl> <chr>    
#>  1 AT11  0.165 0.557 0.279 #049465FF
#>  2 AT12  0.147 0.551 0.302 #049465FF
#>  3 AT13  0.169 0.432 0.399 #3F7F78FF
#>  4 AT21  0.106 0.6   0.294 #049465FF
#>  5 AT22  0.14  0.586 0.274 #049465FF
#>  6 AT31  0.157 0.553 0.291 #049465FF
#>  7 AT32  0.138 0.547 0.315 #049465FF
#>  8 AT33  0.179 0.539 0.282 #049465FF
#>  9 AT34  0.196 0.527 0.277 #049465FF
#> 10 BE10  0.291 0.269 0.441 #636363FF
#> # ... with 314 more rows
…
